{
    "rpco": 200,
    "tsrp": 1510990518672,
    "body": {
        "code": "200",
        "data": {
            "page": {
                "total": 66,
                "pageNo": 1,
                "totalPage": 2,
                "pageSize": 10,
                "list": [
                    {
                        "id": "5200",
                        "title": "我想办理退货，如何申请？"
                    },
                    {
                        "id": "5197",
                        "title": "测试X6"
                    },
                    {
                        "id": "5196",
                        "title": "测试X5"
                    },
                    {
                        "id": "5195",
                        "title": "测试X4"
                    },
                    {
                        "id": "5194",
                        "title": "测试X3"
                    },
                    {
                        "id": "5193",
                        "title": "测试X2"
                    },
                    {
                        "id": "5192",
                        "title": "测试X1"
                    },
                    {
                        "id": "5191",
                        "title": "我就是要看文章标题很长时他怎么显示我就是要看文章标题很长时他怎么显示"
                    },
                    {
                        "id": "5190",
                        "title": "表格测试"
                    },
                    {
                        "id": "5189",
                        "title": "正在发生某些事"
                    }
                ]
            }
        },
        "isSuccess": "Y"
    }
}